// Jest Snapshot v1, https://goo.gl/fbAQLP

exports[`renders LoginScreen correctly 1`] = `
Object {
  "asFragment": [Function],
  "baseElement": <body>
    <div>
      <div
        class="header"
      >
        <div
          class="label headerLabel labelBigger"
        >
          PlantIO
        </div>
      </div>
      <div
        class="screen"
      >
        <form
          class="form"
        >
          <div
            class="label  labelBig"
          >
            Login
          </div>
          <div
            class="fields"
          >
            <div
              class="inputContainer undefined"
            >
              <div
                class="label  labelSmaller"
              >
                Username
              </div>
              <input
                class="input"
                name="userName"
                type="text"
                value=""
              />
            </div>
            <div
              class="inputContainer undefined"
            >
              <div
                class="label  labelSmaller"
              >
                Password
              </div>
              <input
                class="input"
                name="password"
                type="password"
                value=""
              />
            </div>
          </div>
          <div>
            <button
              class="buttonPrimary null buttonAutoWidth"
              type="button"
            >
              <div
                class="label  labelBig"
              >
                Log in
              </div>
            </button>
            <div
              class="footerLinks"
            >
              <a
                class="link"
                href="/login"
              >
                Forgot password?
              </a>
              <a
                class="link"
                href="/register"
              >
                Not a member yet?
              </a>
            </div>
          </div>
        </form>
      </div>
    </div>
  </body>,
  "container": <div>
    <div
      class="header"
    >
      <div
        class="label headerLabel labelBigger"
      >
        PlantIO
      </div>
    </div>
    <div
      class="screen"
    >
      <form
        class="form"
      >
        <div
          class="label  labelBig"
        >
          Login
        </div>
        <div
          class="fields"
        >
          <div
            class="inputContainer undefined"
          >
            <div
              class="label  labelSmaller"
            >
              Username
            </div>
            <input
              class="input"
              name="userName"
              type="text"
              value=""
            />
          </div>
          <div
            class="inputContainer undefined"
          >
            <div
              class="label  labelSmaller"
            >
              Password
            </div>
            <input
              class="input"
              name="password"
              type="password"
              value=""
            />
          </div>
        </div>
        <div>
          <button
            class="buttonPrimary null buttonAutoWidth"
            type="button"
          >
            <div
              class="label  labelBig"
            >
              Log in
            </div>
          </button>
          <div
            class="footerLinks"
          >
            <a
              class="link"
              href="/login"
            >
              Forgot password?
            </a>
            <a
              class="link"
              href="/register"
            >
              Not a member yet?
            </a>
          </div>
        </div>
      </form>
    </div>
  </div>,
  "debug": [Function],
  "findAllByAltText": [Function],
  "findAllByDisplayValue": [Function],
  "findAllByLabelText": [Function],
  "findAllByPlaceholderText": [Function],
  "findAllByRole": [Function],
  "findAllByTestId": [Function],
  "findAllByText": [Function],
  "findAllByTitle": [Function],
  "findByAltText": [Function],
  "findByDisplayValue": [Function],
  "findByLabelText": [Function],
  "findByPlaceholderText": [Function],
  "findByRole": [Function],
  "findByTestId": [Function],
  "findByText": [Function],
  "findByTitle": [Function],
  "getAllByAltText": [Function],
  "getAllByDisplayValue": [Function],
  "getAllByLabelText": [Function],
  "getAllByPlaceholderText": [Function],
  "getAllByRole": [Function],
  "getAllByTestId": [Function],
  "getAllByText": [Function],
  "getAllByTitle": [Function],
  "getByAltText": [Function],
  "getByDisplayValue": [Function],
  "getByLabelText": [Function],
  "getByPlaceholderText": [Function],
  "getByRole": [Function],
  "getByTestId": [Function],
  "getByText": [Function],
  "getByTitle": [Function],
  "queryAllByAltText": [Function],
  "queryAllByDisplayValue": [Function],
  "queryAllByLabelText": [Function],
  "queryAllByPlaceholderText": [Function],
  "queryAllByRole": [Function],
  "queryAllByTestId": [Function],
  "queryAllByText": [Function],
  "queryAllByTitle": [Function],
  "queryByAltText": [Function],
  "queryByDisplayValue": [Function],
  "queryByLabelText": [Function],
  "queryByPlaceholderText": [Function],
  "queryByRole": [Function],
  "queryByTestId": [Function],
  "queryByText": [Function],
  "queryByTitle": [Function],
  "rerender": [Function],
  "unmount": [Function],
}
`;
